%YAML 1.1
%TAG !u! tag:unity3d.com,2011:
--- !u!114 &11400000
MonoBehaviour:
  m_ObjectHideFlags: 0
  m_CorrespondingSourceObject: {fileID: 0}
  m_PrefabInstance: {fileID: 0}
  m_PrefabAsset: {fileID: 0}
  m_GameObject: {fileID: 0}
  m_Enabled: 1
  m_EditorHideFlags: 0
  m_Script: {fileID: 11500000, guid: 3b61da7996f3a3f40b679bcd4d214005, type: 3}
  m_Name: ClimbState_asset
  m_EditorClassIdentifier: 
  active: 1
  ConnectedStates:
  - {fileID: 11400000, guid: b60ab72067e8d02458da3e71364d23cc, type: 2}
  - {fileID: 11400000, guid: f7c5b6eaf380d4548903c12ea90a61d0, type: 2}
  MoveSpeed: 2.5
  ExitOffsetUpward: 1.8
  ExitOffsetForward: 0.25
  JumpDuration: 0.5
  JumpDistance: 1
